[gd_scene load_steps=5 format=2]

[ext_resource path="res://Player/character_1.png" type="Texture" id=1]
[ext_resource path="res://Player/Player.gd" type="Script" id=2]
[ext_resource path="res://Player/Guns/Gun.tscn" type="PackedScene" id=3]

[sub_resource type="OccluderPolygon2D" id=1]
closed = false
polygon = PoolVector2Array( 10.1926, 3.37936, -2.9834, 5.75104, -5.61861, 3.9064, -7.46324, 0.480652, -5.09157, -8.47905, -1.6658, -9.00609, 0.969406, -12.6954, 8.87502, -8.74257 )

[node name="Player" type="KinematicBody2D"]
position = Vector2( 144.357, 234.209 )
z_index = 1
script = ExtResource( 2 )

[node name="body" type="CollisionPolygon2D" parent="."]
position = Vector2( -1.52588e-05, 0 )
rotation = -2.27374e-13
polygon = PoolVector2Array( 12.0619, 2.14145, -4.54933, 7.76079, -14.1617, 1.59053, -15.788, -1.60477, -18.4324, -6.56302, -15.3737, -11.5213, -8.87289, -13.9453, -1.0499, -12.7333, 8.75639, -7.99539, 13.935, -2.15569 )

[node name="skin" type="Sprite" parent="body"]
show_behind_parent = true
position = Vector2( 3.60242, -0.0551453 )
rotation = 1.5708
scale = Vector2( 0.7, 0.7 )
texture = ExtResource( 1 )

[node name="shadow" type="LightOccluder2D" parent="body"]
position = Vector2( 0, 0.440109 )
rotation = -2.16841e-19
scale = Vector2( 0.999999, 0.999999 )
z_index = 1
occluder = SubResource( 1 )

[node name="Gun" parent="." instance=ExtResource( 3 )]
position = Vector2( 1.76973, -0.0769501 )
