[gd_scene load_steps=4 format=2]

[ext_resource path="res://Player/Guns/gun.png" type="Texture" id=1]
[ext_resource path="res://Player/Bullets/Bullets.gd" type="Script" id=2]

[sub_resource type="CircleShape2D" id=1]
radius = 7.96297

[node name="Bullet" type="RigidBody2D"]
show_behind_parent = true
z_index = 1
collision_layer = 2
contacts_reported = 1
contact_monitor = true
linear_velocity = Vector2( 1, 1 )
script = ExtResource( 2 )

[node name="Sprite" type="Sprite" parent="."]
modulate = Color( 0.964706, 0.729412, 0.168627, 1 )
self_modulate = Color( 0.968627, 0.956863, 0.101961, 1 )
position = Vector2( 0.383068, 0.257383 )
rotation = 1.5708
scale = Vector2( 0.414469, 0.302175 )
texture = ExtResource( 1 )

[node name="CollisionShape2D" type="CollisionShape2D" parent="."]
shape = SubResource( 1 )

[node name="Timer" type="Timer" parent="."]
wait_time = 3.0
one_shot = true
[connection signal="body_entered" from="." to="." method="_on_Bullet_body_entered"]
[connection signal="timeout" from="Timer" to="." method="_on_Timer_timeout"]
